Chapter 7 12 - Tidy data | A Minimal Book Example
…
7.4.3 12.5 Missing values

Não usa bases de dados que está no pacote dados.

7.5 12.6 Case Study

dados_oms

## # A tibble: 7,240 x 59
##    pais  iso2  iso3    ano novos_fpp_h014 novos_fpp_h1524
##    <chr> <chr> <chr> <int>          <int>           <int>
##  1 Afeg~ AF    AFG    1980             NA              NA
##  2 Afeg~ AF    AFG    1981             NA              NA
##  3 Afeg~ AF    AFG    1982             NA              NA
##  4 Afeg~ AF    AFG    1983             NA              NA
##  5 Afeg~ AF    AFG    1984             NA              NA
##  6 Afeg~ AF    AFG    1985             NA              NA
##  7 Afeg~ AF    AFG    1986             NA              NA
##  8 Afeg~ AF    AFG    1987             NA              NA
##  9 Afeg~ AF    AFG    1988             NA              NA
## 10 Afeg~ AF    AFG    1989             NA              NA
## # ... with 7,230 more rows, and 53 more variables:
## #   novos_fpp_h2534 <int>, novos_fpp_h3544 <int>,
## #   novos_fpp_h4554 <int>, novos_fpp_h5564 <int>,
## #   novos_fpp_h65 <int>, novos_fpp_m014 <int>,
## #   novos_fpp_m1524 <int>, novos_fpp_m2534 <int>,
## #   novos_fpp_m3544 <int>, novos_fpp_m4554 <int>,
## #   novos_fpp_m65 <int>, novos_fpn_h014 <int>,
## #   novos_fpn_h1524 <int>, novos_fpn_h2534 <int>,
## #   novos_fpn_h3544 <int>, novos_fpn_h4554 <int>,
…
dados_oms <- dados::dados_oms

who <- tidyr::who

dados_oms1 <- dados_oms %>%  #Problema aqui! Porque nossa base tem 1 coluna a menos?
  pivot_longer(
    cols = novos_fpp_h014:novos_recaida_m65, 
    names_to = "chave", 
    values_to = "casos", 
    values_drop_na = TRUE
  )
dados_oms1

## # A tibble: 72,851 x 6
##    pais        iso2  iso3    ano chave           casos
##    <chr>       <chr> <chr> <int> <chr>           <int>
##  1 Afeganistão AF    AFG    1997 novos_fpp_h014      0
##  2 Afeganistão AF    AFG    1997 novos_fpp_h1524    10
##  3 Afeganistão AF    AFG    1997 novos_fpp_h2534     6
##  4 Afeganistão AF    AFG    1997 novos_fpp_h3544     3
##  5 Afeganistão AF    AFG    1997 novos_fpp_h4554     5
##  6 Afeganistão AF    AFG    1997 novos_fpp_h5564     2
##  7 Afeganistão AF    AFG    1997 novos_fpp_h65       0
##  8 Afeganistão AF    AFG    1997 novos_fpp_m014      5
##  9 Afeganistão AF    AFG    1997 novos_fpp_m1524    38
## 10 Afeganistão AF    AFG    1997 novos_fpp_m2534    36
## # ... with 72,841 more rows

who1 <- who %>% 
  pivot_longer(
    cols = new_sp_m014:newrel_f65, 
    names_to = "key", 
    values_to = "cases", 
    values_drop_na = TRUE
  )
who1

## # A tibble: 76,046 x 6
##    country     iso2  iso3   year key          cases
##    <chr>       <chr> <chr> <int> <chr>        <int>
##  1 Afghanistan AF    AFG    1997 new_sp_m014      0
##  2 Afghanistan AF    AFG    1997 new_sp_m1524    10
##  3 Afghanistan AF    AFG    1997 new_sp_m2534     6
##  4 Afghanistan AF    AFG    1997 new_sp_m3544     3
##  5 Afghanistan AF    AFG    1997 new_sp_m4554     5
##  6 Afghanistan AF    AFG    1997 new_sp_m5564     2
##  7 Afghanistan AF    AFG    1997 new_sp_m65       0
##  8 Afghanistan AF    AFG    1997 new_sp_f014      5
##  9 Afghanistan AF    AFG    1997 new_sp_f1524    38
## 10 Afghanistan AF    AFG    1997 new_sp_f2534    36
## # ... with 76,036 more rows

dados_oms1 %>% 
  count(chave)

## # A tibble: 55 x 2
##    chave              n
##    <chr>          <int>
##  1 novos_ep_h014   1038
##  2 novos_ep_h1524  1026
##  3 novos_ep_h2534  1020
##  4 novos_ep_h3544  1024
##  5 novos_ep_h4554  1020
##  6 novos_ep_h5564  1015
##  7 novos_ep_h65    1018
##  8 novos_ep_m014   1032
##  9 novos_ep_m1524  1021
## 10 novos_ep_m2534  1021
## # ... with 45 more rows
…
